{
  "dashboards": [
    {
      "id": 1,
      "title": "Dashboard from JSON file",
      "elements": [
        {
          "title": "first chart",
          "row": 1,
          "column": 2,
          "options": {
                     "series": [{
                       "data": [1, 2, 3],
                       "type": "line"
                   }]
                   }
        },
        {
          "title": "second chart",
          "row": 2,
          "column": 1,
          "options": {
            "chart": 
            {
               "plotBackgroundColor": null,
               "plotBorderWidth": null,
               "plotShadow": false,
               "type": "pie"
            },
            "title": 
            {
               "text": "Browser market shares in January, 2018"
            },
            "tooltip": 
            {
               "pointFormat": "{series.name}: <b>{point.percentage:.1f}%<\/b>"
            },
            "plotOptions": 
            {
               "pie": 
               {
                  "allowPointSelect": true,
                  "cursor": "pointer",
                  "dataLabels": 
                  {
                     "enabled": true,
                     "format": "<b>{point.name}<\/b>: {point.percentage:.1f} %"
                  }
               }
            },
            "series": 
            [      
               {
                  "name": "Brands",
                  "colorByPoint": true,
                  "data": 
                  [            
                     {
                        "name": "Chrome",
                        "y": 61.41,
                        "sliced": true,
                        "selected": true
                     },            
                     {
                        "name": "Internet Explorer",
                        "y": 11.84
                     },            
                     {
                        "name": "Firefox",
                        "y": 10.85
                     },            
                     {
                        "name": "Edge",
                        "y": 4.67
                     },            
                     {
                        "name": "Safari",
                        "y": 4.18
                     },            
                     {
                        "name": "Sogou Explorer",
                        "y": 1.64
                     },            
                     {
                        "name": "Opera",
                        "y": 1.6
                     },            
                     {
                        "name": "QQ",
                        "y": 1.2
                     },            
                     {
                        "name": "Other",
                        "y": 2.61
                     }
                  ]
               }
            ]
         }
        },
        {
          "row": 2,
          "column": 3,
          "title": "SPLINE",
          "options": {
            "chart": 
            {
               "type": "spline",
               "inverted": true
            },
            "title": 
            {
               "text": "Atmosphere Temperature by Altitude"
            },
            "subtitle": 
            {
               "text": "According to the Standard Atmosphere Model"
            },
            "xAxis": 
            {
               "reversed": false,
               "title": 
               {
                  "enabled": true,
                  "text": "Altitude"
               },
               "labels": 
               {
                  "format": "{value} km"
               },
               "maxPadding": 0.05,
               "showLastLabel": true
            },
            "yAxis": 
            {
               "title": 
               {
                  "text": "Temperature"
               },
               "labels": 
               {
                  "format": "{value}°"
               },
               "lineWidth": 2
            },
            "legend": 
            {
               "enabled": false
            },
            "tooltip": 
            {
               "headerFormat": "<b>{series.name}<\/b><br/>",
               "pointFormat": "{point.x} km: {point.y}°C"
            },
            "plotOptions": 
            {
               "spline": 
               {
                  "marker": 
                  {
                     "enable": false
                  }
               }
            },
            "series": 
            [      
               {
                  "name": "Temperature",
                  "data": 
                  [
                     
                     [
                        0,
                        15
                     ],
                     
                     [
                        10,
                        -50
                     ],
                     
                     [
                        20,
                        -56.5
                     ],
                     
                     [
                        30,
                        -46.5
                     ],
                     
                     [
                        40,
                        -22.1
                     ],
                     
                     [
                        50,
                        -2.5
                     ],
                     
                     [
                        60,
                        -27.7
                     ],
                     
                     [
                        70,
                        -55.7
                     ],
                     
                     [
                        80,
                        -76.5
                     ]
                  ]
               }
            ]
         }
        }
      ]
    },
    {
      "id": 2,
      "title": "custom dashboard",
      "elements": []
    }
  ]
}